1 
0 0
16
70 40 67.7164 51.4805 61.2132 61.2132 51.4805 67.7164 40 70 28.5195 67.7164 18.7868 61.2132 12.2836 51.4805 10 40 12.2836 28.5195 18.7868 18.7868 28.5195 12.2836 40 10 51.4805 12.2836 61.2132 18.7868 67.7164 28.5195 
4 0
1
temp.jpg kolo